{
  "project_info": {
    "project_number": "236931394146",
    "firebase_url": "https://lalamove-sendbird-poc.firebaseio.com",
    "project_id": "lalamove-sendbird-poc",
    "storage_bucket": "lalamove-sendbird-poc.appspot.com"
  },
  "client": [
    {
      "client_info": {
        "mobilesdk_app_id": "1:236931394146:android:89a807945b649d8137bf3b",
        "android_client_info": {
          "package_name": "com.lalamove.sendbird.poc"
        }
      },
      "oauth_client": [
        {
          "client_id": "236931394146-ghnb6l7nhhqt8aisk1sa790emv5q52sh.apps.googleusercontent.com",
          "client_type": 3
        }
      ],
      "api_key": [
        {
          "current_key": "AIzaSyA_G1z0CiTObmLJyAV3JHdaISF8uJPnsmY"
        }
      ],
      "services": {
        "appinvite_service": {
          "other_platform_oauth_client": [
            {
              "client_id": "236931394146-ghnb6l7nhhqt8aisk1sa790emv5q52sh.apps.googleusercontent.com",
              "client_type": 3
            }
          ]
        }
      }
    }
  ],
  "configuration_version": "1"
}